Inpatient Capacity in the U.S. During the 2020 COVID-19 Crisis
…
beds_main[is.na(beds_main$icu.occupied),] %>% 
  group_by(state) %>% 
  summarise(max_date = max(collection_date)) 

## `summarise()` ungrouping output (override with `.groups` argument)

## # A tibble: 25 x 2
##    state max_date  
##    <chr> <date>    
##  1 AL    2020-03-08
##  2 AZ    2020-03-28
##  3 CA    2020-03-10
##  4 CO    2020-03-26
##  5 IA    2020-03-07
##  6 ID    2020-03-25
##  7 IL    2020-03-22
##  8 KS    2020-03-11
##  9 KY    2020-03-04
## 10 MD    2020-03-26
## # ... with 15 more rows
…
Investigate inpatient capacity further

# Compare inpatient capacity and COVID-19 capacity. These should be the same in theory.
beds_main %>% 
  group_by(state) %>% 
  summarise(mean_inpat = mean(inpatient.capacity, na.rm = TRUE), mean_cov = mean(covid.capacity, na.rm = TRUE),
            med_inpat = median(inpatient.capacity, na.rm = TRUE), med_cov = median(covid.capacity, na.rm = TRUE))

## `summarise()` ungrouping output (override with `.groups` argument)

## # A tibble: 49 x 5
##    state mean_inpat mean_cov med_inpat med_cov
##    <chr>      <dbl>    <dbl>     <dbl>   <dbl>
##  1 AL        13643.   13646.    13621.  13676.
##  2 AR         9429.    9537.     9490.   9814.
##  3 AZ        12443.   12746.    12271.  12689.
##  4 CA        68935.   70237.    70530.  71700.
##  5 CO        11046.   11428.    11371.  11823.
##  6 CT         9212.    9263.    10275.  10381.
##  7 DC         3142.    3283.     3185.   3298.
##  8 DE         2731.    2765.     2738.   2778.
##  9 FL        59940.   60436.    59355.  60269.
## 10 GA        21968.   22338.    22229.  22640.
## # ... with 39 more rows
…
